{
    "KPackageStructure": "Plasma/Generic",
    "KPlugin": {
        "Authors": [
            {
                "Email": "mart@kde.org",
                "Name": "Marco Martin",
                "Name[ar]": "Marco Martin",
                "Name[az]": "Marco Martin",
                "Name[be]": "Marco Martin",
                "Name[bg]": "Marco Martin",
                "Name[ca@valencia]": "Marco Martin",
                "Name[ca]": "Marco Martin",
                "Name[cs]": "Marco Martin",
                "Name[da]": "Marco Martin",
                "Name[de]": "Marco Martin",
                "Name[en_GB]": "Marco Martin",
                "Name[eo]": "Marco Martin",
                "Name[es]": "Marco Martin",
                "Name[et]": "Marco Martin",
                "Name[eu]": "Marco Martin",
                "Name[fi]": "Marco Martin",
                "Name[fr]": "Marco Martin",
                "Name[hu]": "Marco Martin",
                "Name[ia]": "Marco Martin",
                "Name[id]": "Marco Martin",
                "Name[ie]": "Marco Martin",
                "Name[is]": "Marco Martin",
                "Name[it]": "Marco Martin",
                "Name[ja]": "Marco Martin",
                "Name[ka]": "მაკრო მარტინი",
                "Name[ko]": "Marco Martin",
                "Name[lt]": "Marco Martin",
                "Name[nl]": "Marco Martin",
                "Name[nn]": "Marco Martin",
                "Name[pl]": "Marco Martin",
                "Name[pt]": "Marco Martin",
                "Name[pt_BR]": "Marco Martin",
                "Name[ro]": "Marco Martin",
                "Name[ru]": "Marco Martin",
                "Name[sk]": "Marco Martin",
                "Name[sl]": "Marco Martin",
                "Name[sv]": "Marco Martin",
                "Name[ta]": "மார்க்கோ மார்ட்டின்",
                "Name[tr]": "Marco Martin",
                "Name[uk]": "Marco Martin",
                "Name[vi]": "Marco Martin",
                "Name[x-test]": "xxMarco Martinxx",
                "Name[zh_CN]": "Marco Martin",
                "Name[zh_TW]": "Marco Martin"
            }
        ],
        "Category": "Toolbox",
        "Description": "Manage Plasma panel",
        "Description[ar]": "يدير لوحة بلازما",
        "Description[az]": "Plasma paneli meneceri",
        "Description[be]": "Кіраванне панэлямі Plasma",
        "Description[bg]": "Управление на Plasma панел",
        "Description[ca@valencia]": "Gestioneu el quadro de Plasma",
        "Description[ca]": "Gestió del plafó del Plasma",
        "Description[cs]": "Spravovat panel Plasmy",
        "Description[da]": "Håndtér Plasma-panel",
        "Description[de]": "Plasma-Kontrollleiste verwalten",
        "Description[en_GB]": "Manage Plasma panel",
        "Description[eo]": "Administri Plasma-panelon",
        "Description[es]": "Gestión del panel de Plasma",
        "Description[et]": "Plasma paneeli haldamine",
        "Description[eu]": "Kudeatu Plasma panela",
        "Description[fi]": "Plasma-paneelin hallinta",
        "Description[fr]": "Gérer le panneau de Plasma",
        "Description[hu]": "Plasma panel kezelése",
        "Description[ia]": "Gere pannello de Plasma",
        "Description[id]": "Kelola panel Plasma",
        "Description[ie]": "Gerer li panel de Plasma",
        "Description[is]": "Umsjón með Plasma-skjáborðsstiku",
        "Description[it]": "Gestisci il pannello di Plasma",
        "Description[ja]": "Plasma パネルを管理",
        "Description[ka]": "Plasma-ის პანელის მორგება",
        "Description[ko]": "Plasma 패널 관리",
        "Description[lt]": "Tvarkyti Plasma skydelį",
        "Description[nl]": "Plasmapaneel beheren",
        "Description[nn]": "Handsam Plasma-panel",
        "Description[pa]": "ਪਲਾਜ਼ਮਾ ਪੈਨਲ ਦਾ ਇੰਤਜ਼ਾਮ",
        "Description[pl]": "Zarządzanie panelem Plazmy",
        "Description[pt]": "Gerir o painel do Plasma",
        "Description[pt_BR]": "Gerencia o painel do Plasma",
        "Description[ro]": "Gestionează panoul Plasma",
        "Description[ru]": "Настройка панели Plasma",
        "Description[sk]": "Spravovať panel Plasma",
        "Description[sl]": "Upravljanje plošče Plasme",
        "Description[sv]": "Hantera Plasma-panel",
        "Description[ta]": "பிளாஸ்மா பலகையை நிர்வகியுங்கள்",
        "Description[tr]": "Plasma panelini yönetin",
        "Description[uk]": "Керування панеллю Плазми",
        "Description[vi]": "Quản lí bảng Plasma",
        "Description[x-test]": "xxManage Plasma panelxx",
        "Description[zh_CN]": "管理 Plasma 面板",
        "Description[zh_TW]": "管理 Plasma 面板",
        "EnabledByDefault": true,
        "Icon": "plasma",
        "Id": "org.kde.paneltoolbox",
        "License": "LGPLv2+",
        "Name": "Panel Toolbox",
        "Name[ar]": "صندوق أدوات اللوحة",
        "Name[az]": "Alətlər qutusu paneli",
        "Name[be]": "Панэль інструментаў",
        "Name[bg]": "Панелни инструменти",
        "Name[bs]": "Panel kutija sa alatom",
        "Name[ca@valencia]": "Quadro d'eines del quadro",
        "Name[ca]": "Quadre d'eines del plafó",
        "Name[cs]": "Nástroje panelu",
        "Name[da]": "Panelværktøjskasse",
        "Name[de]": "Werkzeugkasten für die Kontrollleiste",
        "Name[el]": "Εργαλεία πίνακα",
        "Name[en_GB]": "Panel Toolbox",
        "Name[eo]": "Panela Ilaro",
        "Name[es]": "Caja de herramientas del panel",
        "Name[et]": "Paneeli tööriistakast",
        "Name[eu]": "Paneleko tresna-kutxa",
        "Name[fi]": "Paneelin työkalupakki",
        "Name[fr]": "Boîte à outils de tableau de bord",
        "Name[gl]": "Caixa de ferramentas de panel",
        "Name[he]": "ארגז־הכלים של הלוח",
        "Name[hu]": "Panel eszköztár",
        "Name[ia]": "Instrumentario de pannello",
        "Name[id]": "Perkakas Panel",
        "Name[is]": "Verkfærasafn skjáborðsstiku",
        "Name[it]": "Strumento per pannelli",
        "Name[ja]": "パネルツールボックス",
        "Name[ka]": "ხელსაწყოების ზოლი",
        "Name[kk]": "Панель құралдары",
        "Name[ko]": "패널 도구 상자",
        "Name[lt]": "Skydelio priemonių komplektas",
        "Name[mr]": "पटल साधने",
        "Name[nb]": "Panel-verktøykasse",
        "Name[nds]": "Paneel-Warktüüchkist",
        "Name[nl]": "Paneelhulpmiddelen",
        "Name[nn]": "Panel­verktøykasse",
        "Name[pa]": "ਪੈਨਲ ਟੂਲਬਾਕਸ",
        "Name[pl]": "Przybornik panelu",
        "Name[pt]": "Barra do Painel",
        "Name[pt_BR]": "Barra de ferramentas painel",
        "Name[ro]": "Trusa de unelte a panoului",
        "Name[ru]": "Инструменты панели",
        "Name[sk]": "Nástroje panelu",
        "Name[sl]": "Orodjarna za pult",
        "Name[sr@ijekavian]": "Панелска алатница",
        "Name[sr@ijekavianlatin]": "Panelska alatnica",
        "Name[sr@latin]": "Panelska alatnica",
        "Name[sr]": "Панелска алатница",
        "Name[sv]": "Panelverktygslåda",
        "Name[ta]": "பலகை கருவிப்பெட்டி",
        "Name[tg]": "Қуттии абзорҳои лавҳа",
        "Name[tr]": "Panel Araç Kutusu",
        "Name[uk]": "Набір інструментів панелі",
        "Name[vi]": "Hộp công cụ bảng",
        "Name[x-test]": "xxPanel Toolboxxx",
        "Name[zh_CN]": "面板工具箱",
        "Name[zh_TW]": "面板工具盒",
        "Version": "0.1",
        "Website": "https://www.kde.org/plasma-desktop"
    },
    "X-Plasma-MainScript": "ui/main.qml"
}
